{
    "authentification": false,
    "products": [{
        "id": 1,
        "model": "HP",
        "description": "Laptop",
        "price": 280,
        "quantity": 0,
        "reference": "098766456677888",
        "details": "Lorem ipsum, dolor sit amet consectetur adipisicing elit Quis consequuntur, soluta aperiam nihil natus facilis itaque quidem ipsumeum iure neque cumque veritatis sint necessitatibus facere fugit hic nesciuntplaceat.",
        "url": "@/assets/computers/images (2).jpg",
        "classe": "available",
        "stars":3
      },
      {
        "id": 2,
        "model": "ASUS",
        "description": "Laptop",
        "price": 520,
        "quantity": 0,
        "reference": "098766456677888",
        "details": "Lorem ipsum, dolor sit amet consectetur adipisicing elit Quis consequuntur, soluta aperiam nihil natus facilis itaque quidem ipsumeum iure neque cumque veritatis sint necessitatibus facere fugit hic nesciuntplaceat.",
        "url": "@/assets/computers/images (3).jpg",
        "classe": "available",
        "stars":3

      },
      {
        "id": 3,
        "model": "LENOVO",
        "description": "Laptop",
        "price": 1080,
        "quantity": 0,
        "reference": "098766456677888",
        "details": "Lorem ipsum, dolor sit amet consectetur adipisicing elit Quis consequuntur, soluta aperiam nihil natus facilis itaque quidem ipsumeum iure neque cumque veritatis sint necessitatibus facere fugit hic nesciuntplaceat.",
        "url": "@/assets/computers/images (4).jpg",
        "classe": "available",
        "stars":3
      },
      {
        "id": 4,
        "model": "LENOVO1",
        "description": "Laptop",
        "price": 1080,
        "quantity": 0,
        "reference": "098766456677888",
        "details": "Lorem ipsum, dolor sit amet consectetur adipisicing elit Quis consequuntur, soluta aperiam nihil natus facilis itaque quidem ipsumeum iure neque cumque veritatis sint necessitatibus facere fugit hic nesciuntplaceat.",
        "url": "@/assets/computers/images (5).jpg",
        "classe": "available",
        "stars":3
      },
      {
        "id": 5,
        "model": "LENOVO2",
        "description": "Laptop",
        "price": 1280,
        "quantity": 0,
        "reference": "098766456677888",
        "details": "Lorem ipsum, dolor sit amet consectetur adipisicing elit Quis consequuntur, soluta aperiam nihil natus facilis itaque quidem ipsumeum iure neque cumque veritatis sint necessitatibus facere fugit hic nesciuntplaceat.",
        "url": "@/assets/computers/images (6).jpg",
        "classe": "available",
        "stars":3
      },
      {
        "id": 6,
        "model": "LENOVO3",
        "description": "Laptop",
        "price": 1680,
        "quantity": 0,
        "reference": "098766456677888",
        "details": "Lorem ipsum, dolor sit amet consectetur adipisicing elit Quis consequuntur, soluta aperiam nihil natus facilis itaque quidem ipsumeum iure neque cumque veritatis sint necessitatibus facere fugit hic nesciuntplaceat.",
        "url": "@/assets/computers/images (7).jpg",
        "classe": "available",
        "stars":3
      },
      {
        "id": 7,
        "model": "LENOVO4",
        "description": "Laptop",
        "price": 1780,
        "quantity": 0,
        "reference": "098766456677888",
        "details": "Lorem ipsum, dolor sit amet consectetur adipisicing elit Quis consequuntur, soluta aperiam nihil natus facilis itaque quidem ipsumeum iure neque cumque veritatis sint necessitatibus facere fugit hic nesciuntplaceat.",
        "url": "@/assets/computers/images (8).jpg",
        "classe": "mostPopular",
        "stars":3
      },
      {
        "id": 8,
        "model": "LENOVO5",
        "description": "Laptop",
        "price": 1180,
        "quantity": 0,
        "reference": "098766456677888",
        "details": "Lorem ipsum, dolor sit amet consectetur adipisicing elit Quis consequuntur, soluta aperiam nihil natus facilis itaque quidem ipsumeum iure neque cumque veritatis sint necessitatibus facere fugit hic nesciuntplaceat.",
        "url": "@/assets/computers/images (9).jpg",
        "classe": "mostPopular",
        "stars":3
      },
      {
        "id": 9,
        "model": "LENOVO6",
        "description": "Laptop",
        "price": 1280,
        "quantity": 0,
        "reference": "098766456677888",
        "details": "Lorem ipsum, dolor sit amet consectetur adipisicing elit Quis consequuntur, soluta aperiam nihil natus facilis itaque quidem ipsumeum iure neque cumque veritatis sint necessitatibus facere fugit hic nesciuntplaceat.",
        "url": "@/assets/computers/images (10).jpg",
        "classe": "mostPopular",
        "stars":3
      }, {
        "id": 10,
        "model": "LENOVO1",
        "description": "Laptop",
        "price": 1280,
        "quantity": 0,
        "reference": "098766456677888",
        "details": "Lorem ipsum, dolor sit amet consectetur adipisicing elit Quis consequuntur, soluta aperiam nihil natus facilis itaque quidem ipsumeum iure neque cumque veritatis sint necessitatibus facere fugit hic nesciuntplaceat.",
        "url": "@/assets/computers/images (11).jpg",
        "classe": "suggestion",
        "stars":3
      },
      {
        "id": 11,
        "model": "LENOVO2",
        "description": "Laptop",
        "price": 1280,
        "quantity": 0,
        "reference": "098766456677888",
        "details": "Lorem ipsum, dolor sit amet consectetur adipisicing elit Quis consequuntur, soluta aperiam nihil natus facilis itaque quidem ipsumeum iure neque cumque veritatis sint necessitatibus facere fugit hic nesciuntplaceat.",
        "url": "@/assets/computers/images (12).jpg",
        "classe": "suggestion",
        "stars":3
      },
      {
        "id": 12,
        "model": "LENOVO3",
        "description": "Laptop",
        "price": 1280,
        "quantity": 0,
        "reference": "098766456677888",
        "details": "Lorem ipsum, dolor sit amet consectetur adipisicing elit Quis consequuntur, soluta aperiam nihil natus facilis itaque quidem ipsumeum iure neque cumque veritatis sint necessitatibus facere fugit hic nesciuntplaceat.",
        "url": "@/assets/computers/images (13).jpg",
        "classe": "suggestion",
        "stars":3
      },
      {
        "id": 13,
        "model": "LENOVO4",
        "description": "Laptop",
        "price": 1280,
        "quantity": 0,
        "reference": "098766456677888",
        "details": "Lorem ipsum, dolor sit amet consectetur adipisicing elit Quis consequuntur, soluta aperiam nihil natus facilis itaque quidem ipsumeum iure neque cumque veritatis sint necessitatibus facere fugit hic nesciuntplaceat.",
        "url": "@/assets/computers/images (14).jpg",
        "classe": "suggestion",
        "stars":3
      },
      {
        "id": 14,
        "model": "LENOVO5",
        "description": "Laptop",
        "price": 1280,
        "quantity": 0,
        "reference": "098766456677888",
        "details": "Lorem ipsum, dolor sit amet consectetur adipisicing elit Quis consequuntur, soluta aperiam nihil natus facilis itaque quidem ipsumeum iure neque cumque veritatis sint necessitatibus facere fugit hic nesciuntplaceat.",
        "url": "@/assets/computers/images (15).jpg",
        "classe": "suggestion",
        "stars":3
      },
      {
        "id": 15,
        "model": "LENOVO6",
        "description": "Laptop",
        "price": 1280,
        "quantity": 0,
        "reference": "098766456677888",
        "details": "Lorem ipsum, dolor sit amet consectetur adipisicing elit Quis consequuntur, soluta aperiam nihil natus facilis itaque quidem ipsumeum iure neque cumque veritatis sint necessitatibus facere fugit hic nesciuntplaceat.",
        "url": "@/assets/computers/images (16).jpg",
        "classe": "suggestion",
        "stars":3
      },
      {
        "id": 16,
        "model": "LENOVO7",
        "description": "Laptop",
        "price": 1280,
        "quantity": 0,
        "reference": "098766456677888",
        "details": "Lorem ipsum, dolor sit amet consectetur adipisicing elit Quis consequuntur, soluta aperiam nihil natus facilis itaque quidem ipsumeum iure neque cumque veritatis sint necessitatibus facere fugit hic nesciuntplaceat.",
        "url": "@/assets/computers/images (17).jpg",
        "classe": "suggestion",
        "stars":3
      },
      {
        "id": 17,
        "model": "LENOVO8",
        "description": "Laptop",
        "price": 1280,
        "quantity": 0,
        "reference": "098766456677888",
        "details": "Lorem ipsum, dolor sit amet consectetur adipisicing elit Quis consequuntur, soluta aperiam nihil natus facilis itaque quidem ipsumeum iure neque cumque veritatis sint necessitatibus facere fugit hic nesciuntplaceat.",
        "url": "@/assets/computers/images (18).jpg",
        "classe": "suggestion",
        "stars":3
      },
      {
        "id": 18,
        "model": "LENOVO9",
        "description": "Laptop",
        "price": 1280,
        "quantity": 0,
        "reference": "098766456677888",
        "details": "Lorem ipsum, dolor sit amet consectetur adipisicing elit Quis consequuntur, soluta aperiam nihil natus facilis itaque quidem ipsumeum iure neque cumque veritatis sint necessitatibus facere fugit hic nesciuntplaceat.",
        "url": "@/assets/computers/images (11).jpg",
        "classe": "suggestion",
        "stars":3
      },
      {
        "id": 19,
        "model": "LENOVO10",
        "description": "Laptop",
        "price": 1280,
        "quantity": 0,
        "reference": "098766456677888",
        "details": "Lorem ipsum, dolor sit amet consectetur adipisicing elit Quis consequuntur, soluta aperiam nihil natus facilis itaque quidem ipsumeum iure neque cumque veritatis sint necessitatibus facere fugit hic nesciuntplaceat.",
        "url": "@/assets/computers/images (13).jpg",
        "classe": "suggestion",
        "stars":3
      },
      {
        "id": 20,
        "model": "LENOVO11",
        "description": "Laptop",
        "price": 1280,
        "quantity": 0,
        "reference": "098766456677888",
        "details": "Lorem ipsum, dolor sit amet consectetur adipisicing elit Quis consequuntur, soluta aperiam nihil natus facilis itaque quidem ipsumeum iure neque cumque veritatis sint necessitatibus facere fugit hic nesciuntplaceat.",
        "url": "@/assets/computers/images (14).jpg",
        "classe": "suggestion",
        "stars":3
      }
    ]
    
  }